<svg id="2" width="337" height="349" viewBox="0 0 337 349" fill="none" xmlns="http://www.w3.org/2000/svg">
<g filter="url(#filter0_d_625_9)">
<path d="M131.502 8.41406L8.83594 220.879C45.2267 241.936 69.728 281.254 69.728 326.322H314.996C314.996 190.481 241.193 71.8816 131.502 8.41406Z" fill="currentColor"/>
</g>
<defs>
<filter id="filter0_d_625_9" x="0.835938" y="0.414062" width="336.16" height="347.908" filterUnits="userSpaceOnUse" color-interpolation-filters="sRGB">
<feFlood flood-opacity="0" result="BackgroundImageFix"/>
<feColorMatrix in="SourceAlpha" type="matrix" values="0 0 0 0 0 0 0 0 0 0 0 0 0 0 0 0 0 0 127 0" result="hardAlpha"/>
<feOffset dx="7" dy="7"/>
<feGaussianBlur stdDeviation="7.5"/>
<feComposite in2="hardAlpha" operator="out"/>
<feColorMatrix type="matrix" values="0 0 0 0 0 0 0 0 0 0 0 0 0 0 0 0 0 0 0.4 0"/>
<feBlend mode="normal" in2="BackgroundImageFix" result="effect1_dropShadow_625_9"/>
<feBlend mode="normal" in="SourceGraphic" in2="effect1_dropShadow_625_9" result="shape"/>
</filter>
</defs>
</svg>
