<svg id="5" width="319" height="326" viewBox="0 0 319 326" fill="none" xmlns="http://www.w3.org/2000/svg">
<g filter="url(#filter0_d_625_12)">
<path d="M243.365 8.32031H8.27734C8.27734 134.409 76.7815 244.492 178.596 303.401L296.17 99.7568C264.612 81.4991 243.365 47.4028 243.365 8.32031Z" fill="currentColor"/>
</g>
<defs>
<filter id="filter0_d_625_12" x="0.277344" y="0.320312" width="317.891" height="325.08" filterUnits="userSpaceOnUse" color-interpolation-filters="sRGB">
<feFlood flood-opacity="0" result="BackgroundImageFix"/>
<feColorMatrix in="SourceAlpha" type="matrix" values="0 0 0 0 0 0 0 0 0 0 0 0 0 0 0 0 0 0 127 0" result="hardAlpha"/>
<feOffset dx="7" dy="7"/>
<feGaussianBlur stdDeviation="7.5"/>
<feComposite in2="hardAlpha" operator="out"/>
<feColorMatrix type="matrix" values="0 0 0 0 0 0 0 0 0 0 0 0 0 0 0 0 0 0 0.4 0"/>
<feBlend mode="normal" in2="BackgroundImageFix" result="effect1_dropShadow_625_12"/>
<feBlend mode="normal" in="SourceGraphic" in2="effect1_dropShadow_625_12" result="shape"/>
</filter>
</defs>
</svg>
