<svg id="6" width="338" height="349" viewBox="0 0 338 349" fill="none" xmlns="http://www.w3.org/2000/svg">
<g filter="url(#filter0_d_625_13)">
<path d="M315.084 220.879L192.418 8.41406C82.7252 71.8799 8.92188 190.479 8.92188 326.321H254.19C254.19 281.254 278.693 241.934 315.084 220.879Z" fill="currentColor"/>
</g>

<defs>
<filter id="filter0_d_625_13" x="0.921875" y="0.414062" width="336.16" height="347.906" filterUnits="userSpaceOnUse" color-interpolation-filters="sRGB">
<feFlood flood-opacity="0" result="BackgroundImageFix"/>
<feColorMatrix in="SourceAlpha" type="matrix" values="0 0 0 0 0 0 0 0 0 0 0 0 0 0 0 0 0 0 127 0" result="hardAlpha"/>
<feOffset dx="7" dy="7"/>
<feGaussianBlur stdDeviation="7.5"/>
<feComposite in2="hardAlpha" operator="out"/>
<feColorMatrix type="matrix" values="0 0 0 0 0 0 0 0 0 0 0 0 0 0 0 0 0 0 0.4 0"/>
<feBlend mode="normal" in2="BackgroundImageFix" result="effect1_dropShadow_625_13"/>
<feBlend mode="normal" in="SourceGraphic" in2="effect1_dropShadow_625_13" result="shape"/>
</filter>
</defs>
</svg>
