<svg width="87" height="69" viewBox="0 0 87 69" fill="none" xmlns="http://www.w3.org/2000/svg">
<g clip-path="url(#clip0_418_1025)">
<path d="M47.7244 6.37415C48.125 6.12761 48.5507 5.96736 48.9763 5.86875C49.5647 5.74548 50.1781 5.7578 50.7415 5.88107C51.7054 6.10296 52.5943 6.68232 53.1702 7.55753L68.1804 29.7213C69.2821 31.3362 69.8579 33.2468 69.8579 35.1945V44.2548C69.8579 45.1053 70.4088 45.8573 71.2225 46.1285L81.1375 49.3828C82.7775 49.9128 83.8792 51.4167 83.8792 53.1178V64.9517C83.8792 66.172 83.3033 67.3308 82.3143 68.0827C81.3253 68.8346 80.0484 69.0812 78.8465 68.7607L57.7145 63.2136C50.7039 61.3769 45.8215 55.1148 45.8215 47.9652V33.3948C45.8215 31.2129 47.6117 29.4501 49.8276 29.4501C52.0434 29.4501 53.8337 31.2129 53.8337 33.3948V43.2563C53.8337 44.3411 54.735 45.2286 55.8367 45.2286C56.9384 45.2286 57.8397 44.3411 57.8397 43.2563V32.7907C57.8397 31.9279 57.6144 31.0896 57.1762 30.35L46.3598 11.7117C46.147 11.3419 45.9968 10.9598 45.9092 10.5653C45.784 9.98594 45.784 9.38192 45.9217 8.82721C46.1595 7.84105 46.773 6.95351 47.7119 6.37415H47.7244ZM39.9126 6.37415C40.8515 6.94119 41.4649 7.84105 41.7028 8.82721C41.8405 9.39424 41.853 9.98594 41.7153 10.5653C41.6277 10.9598 41.4774 11.3419 41.2646 11.7117L30.4608 30.35C30.0226 31.0896 29.7972 31.9402 29.7972 32.7907V43.2563C29.7972 44.3411 30.6986 45.2286 31.8003 45.2286C32.902 45.2286 33.8033 44.3411 33.8033 43.2563V33.3948C33.8033 31.2129 35.5935 29.4501 37.8094 29.4501C40.0252 29.4501 41.8155 31.2129 41.8155 33.3948V47.9775C41.8155 55.1271 36.9331 61.3769 29.9224 63.2259L8.80295 68.773C7.60113 69.0935 6.31168 68.8346 5.3352 68.095C4.35872 67.3554 3.75781 66.1844 3.75781 64.9517V53.1178C3.75781 51.4167 4.85948 49.9128 6.49946 49.3704L16.4145 46.1161C17.2282 45.8449 17.779 45.093 17.779 44.2424V35.1822C17.779 33.2345 18.3674 31.3362 19.4566 29.709L34.4543 7.56986C35.0302 6.69465 35.919 6.11528 36.883 5.8934C37.4589 5.7578 38.0598 5.74548 38.6482 5.88107C39.0863 5.97969 39.512 6.13994 39.9001 6.38648L39.9126 6.37415Z" fill="white"/>
</g>
<defs>
<clipPath id="clip0_418_1025">
<rect width="86.1912" height="67.9818" fill="white" transform="translate(0.117188 0.926758)"/>
</clipPath>
</defs>
</svg>
