<svg id="2" width="748" height="273" viewBox="0 0 748 273" fill="none" xmlns="http://www.w3.org/2000/svg">
<g filter="url(#filter0_d_418_1520)">
<path d="M725.003 182.835L655.849 250.431L586.676 182.835H601.19V160.303C601.19 150.971 593.623 143.404 584.291 143.404H76.3848C57.7208 143.404 40.8219 135.837 28.5796 123.614C16.356 111.371 8.78906 94.4725 8.78906 75.8086C8.78906 38.4807 39.0569 8.21289 76.3848 8.21289H586.376L710.489 129.491V182.835H725.003Z" fill="currentColor"/>
</g>
<path d="M75.4149 132.082C106.509 132.082 131.716 106.875 131.716 75.7801C131.716 44.6856 106.509 19.4785 75.4149 19.4785C44.3204 19.4785 19.1133 44.6856 19.1133 75.7801C19.1133 106.875 44.3204 132.082 75.4149 132.082Z" fill="#ffffff"/>
<path fill-rule="evenodd" clip-rule="evenodd" d="M96.8346 53.6673H54.168C53.4607 53.6673 52.7824 53.9483 52.2824 54.4484C51.7823 54.9485 51.5013 55.6267 51.5013 56.334V93.6673C51.5013 94.3746 51.7823 95.0528 52.2824 95.5529C52.7824 96.053 53.4607 96.334 54.168 96.334H96.8346C97.5419 96.334 98.2202 96.053 98.7203 95.5529C99.2204 95.0528 99.5013 94.3746 99.5013 93.6673V56.334C99.5013 55.6267 99.2204 54.9485 98.7203 54.4484C98.2202 53.9483 97.5419 53.6673 96.8346 53.6673ZM54.168 48.334C52.0462 48.334 50.0114 49.1768 48.5111 50.6771C47.0108 52.1774 46.168 54.2123 46.168 56.334V93.6673C46.168 95.7891 47.0108 97.8239 48.5111 99.3242C50.0114 100.824 52.0462 101.667 54.168 101.667H96.8346C98.9564 101.667 100.991 100.824 102.491 99.3242C103.992 97.8239 104.835 95.7891 104.835 93.6673V56.334C104.835 54.2123 103.992 52.1774 102.491 50.6771C100.991 49.1768 98.9564 48.334 96.8346 48.334H54.168ZM59.5013 61.6673H64.8346V67.0007H59.5013V61.6673ZM72.8346 61.6673C72.1274 61.6673 71.4491 61.9483 70.949 62.4484C70.4489 62.9485 70.168 63.6267 70.168 64.334C70.168 65.0412 70.4489 65.7195 70.949 66.2196C71.4491 66.7197 72.1274 67.0007 72.8346 67.0007H88.8346C89.5419 67.0007 90.2202 66.7197 90.7203 66.2196C91.2204 65.7195 91.5013 65.0412 91.5013 64.334C91.5013 63.6267 91.2204 62.9485 90.7203 62.4484C90.2202 61.9483 89.5419 61.6673 88.8346 61.6673H72.8346ZM64.8346 72.334H59.5013V77.6673H64.8346V72.334ZM70.168 75.0007C70.168 74.2934 70.4489 73.6151 70.949 73.115C71.4491 72.6149 72.1274 72.334 72.8346 72.334H88.8346C89.5419 72.334 90.2202 72.6149 90.7203 73.115C91.2204 73.6151 91.5013 74.2934 91.5013 75.0007C91.5013 75.7079 91.2204 76.3862 90.7203 76.8863C90.2202 77.3864 89.5419 77.6673 88.8346 77.6673H72.8346C72.1274 77.6673 71.4491 77.3864 70.949 76.8863C70.4489 76.3862 70.168 75.7079 70.168 75.0007ZM64.8346 83.0007H59.5013V88.334H64.8346V83.0007ZM70.168 85.6673C70.168 84.9601 70.4489 84.2818 70.949 83.7817C71.4491 83.2816 72.1274 83.0007 72.8346 83.0007H88.8346C89.5419 83.0007 90.2202 83.2816 90.7203 83.7817C91.2204 84.2818 91.5013 84.9601 91.5013 85.6673C91.5013 86.3746 91.2204 87.0528 90.7203 87.5529C90.2202 88.053 89.5419 88.334 88.8346 88.334H72.8346C72.1274 88.334 71.4491 88.053 70.949 87.5529C70.4489 87.0528 70.168 86.3746 70.168 85.6673Z" fill="currentColor"/>
<defs>
<filter id="filter0_d_418_1520" x="0.789062" y="0.212891" width="746.215" height="272.218" filterUnits="userSpaceOnUse" color-interpolation-filters="sRGB">
<feFlood flood-opacity="0" result="BackgroundImageFix"/>
<feColorMatrix in="SourceAlpha" type="matrix" values="0 0 0 0 0 0 0 0 0 0 0 0 0 0 0 0 0 0 127 0" result="hardAlpha"/>
<feOffset dx="7" dy="7"/>
<feGaussianBlur stdDeviation="7.5"/>
<feComposite in2="hardAlpha" operator="out"/>
<feColorMatrix type="matrix" values="0 0 0 0 0 0 0 0 0 0 0 0 0 0 0 0 0 0 0.4 0"/>
<feBlend mode="normal" in2="BackgroundImageFix" result="effect1_dropShadow_418_1520"/>
<feBlend mode="normal" in="SourceGraphic" in2="effect1_dropShadow_418_1520" result="shape"/>
</filter>
<linearGradient id="paint0_linear_418_1520" x1="30.7861" y1="43.6191" x2="115.286" y2="118.119" gradientUnits="userSpaceOnUse">
<stop offset="0.359375" stop-color="white"/>
<stop offset="1" stop-color="#DCDCDC"/>
</linearGradient>
</defs>
</svg>
