<svg width="369" height="481" viewBox="0 0 369 481" fill="none" xmlns="http://www.w3.org/2000/svg">
<g filter="url(#filter0_d_51_27)">
<path d="M8.42188 193.027C96.1617 206.9 163.251 282.862 163.251 374.503C163.251 379.506 163.044 384.461 162.652 389.366L255.127 458.721L346.65 390.08C346.865 384.912 347.002 379.723 347.002 374.503C347.002 182.206 199.297 24.4304 11.1568 8.37695L79.0344 98.8798L8.42188 193.027Z" fill="#3E7CB5"/>
</g>
<path d="M249.578 332.852C251.64 332.852 252.815 334.905 252.815 336.967V349.605H250.205C249.697 348.35 248.769 347.311 247.579 346.665C246.389 346.02 245.012 345.808 243.683 346.066C242.354 346.325 241.156 347.038 240.296 348.082C239.435 349.127 238.964 350.439 238.964 351.792C238.964 353.146 239.435 354.458 240.296 355.502C241.156 356.547 242.354 357.26 243.683 357.518C245.012 357.777 246.389 357.565 247.579 356.92C248.769 356.274 249.697 355.235 250.205 353.98H252.815V385.766C252.815 387.504 252.08 389.234 250.531 390.024C249.127 390.76 247.567 391.148 245.981 391.156C241.577 391.156 238.302 388.927 236.193 386.291C234.733 384.471 233.714 382.338 233.218 380.058C231.856 379.656 230.595 378.97 229.517 378.045C227.446 376.263 225.836 373.405 225.836 369.193C225.836 366.991 225.993 365.072 226.39 363.459H238.669C240.647 363.459 242.286 364.917 242.563 366.816C241.313 367.333 240.282 368.269 239.645 369.463C239.009 370.656 238.807 372.034 239.075 373.36C239.343 374.686 240.063 375.878 241.112 376.732C242.162 377.585 243.475 378.048 244.828 378.04C246.181 378.032 247.488 377.554 248.528 376.687C249.567 375.821 250.273 374.621 250.524 373.292C250.776 371.963 250.558 370.587 249.908 369.401C249.257 368.215 248.215 367.292 246.958 366.79C246.805 364.696 245.865 362.738 244.328 361.308C242.79 359.879 240.769 359.084 238.669 359.084H228.869C229.306 358.723 229.792 358.426 230.313 358.203C230.012 357.132 229.838 356.028 229.794 354.916C229.698 352.772 230.018 350.541 230.654 348.555C231.284 346.601 232.282 344.696 233.682 343.381C234.56 342.525 235.673 341.949 236.878 341.727C237.459 339.277 238.938 337.253 240.825 335.786C243.248 333.896 246.425 332.852 249.575 332.852H249.578ZM257.19 376.584H262.003C264.207 376.584 266.322 375.708 267.88 374.149C269.439 372.59 270.315 370.476 270.315 368.272V363.036C271.57 362.528 272.609 361.6 273.255 360.41C273.9 359.22 274.112 357.843 273.854 356.514C273.595 355.185 272.882 353.988 271.838 353.127C270.793 352.266 269.481 351.795 268.128 351.795C266.774 351.795 265.462 352.266 264.418 353.127C263.373 353.988 262.66 355.185 262.402 356.514C262.143 357.843 262.355 359.22 263 360.41C263.646 361.6 264.685 362.528 265.94 363.036V368.272C265.94 369.316 265.525 370.317 264.787 371.056C264.048 371.794 263.047 372.209 262.003 372.209H257.19V336.967C257.19 334.905 258.366 332.852 260.428 332.852C263.583 332.852 266.757 333.896 269.181 335.786C271.068 337.253 272.546 339.28 273.127 341.727C274.352 341.931 275.443 342.555 276.323 343.381C277.723 344.696 278.721 346.598 279.351 348.555C279.987 350.541 280.308 352.772 280.211 354.916C280.162 356.013 280.001 357.133 279.692 358.203L279.885 358.291C280.964 358.798 281.839 359.594 282.492 360.653C283.732 362.651 284.169 365.527 284.169 369.193C284.169 373.408 282.559 376.269 280.488 378.045C279.41 378.97 278.147 379.656 276.784 380.058C276.289 382.337 275.271 384.471 273.812 386.291C271.703 388.927 268.428 391.156 264.021 391.156C262.436 391.149 260.876 390.762 259.471 390.027C257.925 389.234 257.19 387.504 257.19 385.766V376.584ZM243.336 351.792C243.336 351.406 243.49 351.035 243.763 350.761C244.037 350.488 244.407 350.334 244.794 350.334C245.181 350.334 245.552 350.488 245.825 350.761C246.099 351.035 246.253 351.406 246.253 351.792C246.253 352.179 246.099 352.55 245.825 352.824C245.552 353.097 245.181 353.251 244.794 353.251C244.407 353.251 244.037 353.097 243.763 352.824C243.49 352.55 243.336 352.179 243.336 351.792ZM244.794 370.751C244.407 370.751 244.037 370.904 243.763 371.178C243.49 371.451 243.336 371.822 243.336 372.209C243.336 372.596 243.49 372.967 243.763 373.24C244.037 373.514 244.407 373.667 244.794 373.667C245.181 373.667 245.552 373.514 245.825 373.24C246.099 372.967 246.253 372.596 246.253 372.209C246.253 371.822 246.099 371.451 245.825 371.178C245.552 370.904 245.181 370.751 244.794 370.751ZM266.669 357.626C266.669 358.013 266.823 358.383 267.096 358.657C267.37 358.93 267.741 359.084 268.128 359.084C268.514 359.084 268.885 358.93 269.159 358.657C269.432 358.383 269.586 358.013 269.586 357.626C269.586 357.239 269.432 356.868 269.159 356.595C268.885 356.321 268.514 356.167 268.128 356.167C267.741 356.167 267.37 356.321 267.096 356.595C266.823 356.868 266.669 357.239 266.669 357.626Z" fill="white"/>
<defs>
<filter id="filter0_d_51_27" x="0.421875" y="0.376953" width="368.58" height="480.345" filterUnits="userSpaceOnUse" color-interpolation-filters="sRGB">
<feFlood flood-opacity="0" result="BackgroundImageFix"/>
<feColorMatrix in="SourceAlpha" type="matrix" values="0 0 0 0 0 0 0 0 0 0 0 0 0 0 0 0 0 0 127 0" result="hardAlpha"/>
<feOffset dx="7" dy="7"/>
<feGaussianBlur stdDeviation="7.5"/>
<feComposite in2="hardAlpha" operator="out"/>
<feColorMatrix type="matrix" values="0 0 0 0 0 0 0 0 0 0 0 0 0 0 0 0 0 0 0.4 0"/>
<feBlend mode="normal" in2="BackgroundImageFix" result="effect1_dropShadow_51_27"/>
<feBlend mode="normal" in="SourceGraphic" in2="effect1_dropShadow_51_27" result="shape"/>
</filter>
</defs>
</svg>
